{
    "results": [
        {
            "utc_offset": 0,
            "venue": {
                "country": "gb",
                "city": "Oxford",
                "address_1": "Folly Bridge, St Aldates, Oxford, Oxfordshire, OX1 4LB",
                "name": "Head of the River",
                "lon": -1.256151,
                "id": 11080652,
                "lat": 51.746033,
                "repinned": false
            },
            "headcount": 0,
            "distance": 22.798547744750977,
            "visibility": "public",
            "waitlist_count": 0,
            "created": 1293612730000,
            "maybe_rsvp_count": 0,
            "description": "<p>Don't worry if the website \"says\" that just 8 people are atttending. Rarely people confirm that they are coming. Usually there are <b>30-40 people</b> every Wednesday. You will not be alone. You will meet new people. That's a given :)</p> <p><b>WHY?</b><br/>A meet-up for people who want to improve their Spanish,  their English or just make new friends.</p> <p><b>WHAT TIME?</b><br/><b>18:30pm</b> to <b>19:30pm</b> people usually speak Spanish.<br/><b>19:30pm onwards.</b> people usually speak English.</p> <p><b>WHERE?</b></p> <p>Head of the River. St Aldate's Pembroke Street, St. Aldates OX1 4LB Oxford</p> <p><b>ORGANIZER</b><br/>You can consult any issue with me either by phone [masked]) or email ([masked])</p> <p><b>ADVICE</b><br/>Be open-minded, not to be afraid to make mistakes and... most importantly, drink a beer, it normally helps to start talking!! And the most important: ENJOY ^_</p>",
            "how_to_find_us": "Either look for me (have a lok at my profile picture) or ask the waiters",
            "event_url": "http://www.meetup.com/The-Oxford-Spanish-Intercambio-Meetup-Group/events/220465507/",
            "yes_rsvp_count": 9,
            "name": "The Oxford Spanish Language Exchange Meetup",
            "id": "blncqytfbgb",
            "time": 1425493800000,
            "updated": 1385469755000,
            "group": {
                "join_mode": "open",
                "created": 1189636907000,
                "name": "The Oxford Spanish Intercambio Meetup Group",
                "group_lon": -1.2599999904632568,
                "id": 680045,
                "urlname": "The-Oxford-Spanish-Intercambio-Meetup-Group",
                "group_lat": 51.7599983215332,
                "who": "Language Learners"
            },
            "status": "upcoming"
        },
        {
            "utc_offset": 0,
            "venue": {
                "country": "gb",
                "city": "WOKING ",
                "address_1": "43 - 47 Chertsey Road, GU21 5AJ ",
                "name": "THE OGILVY",
                "lon": -0.55567,
                "id": 17741092,
                "lat": 51.32016,
                "repinned": false
            },
            "rsvp_limit": 20,
            "headcount": 0,
            "distance": 21.640363693237305,
            "visibility": "public",
            "waitlist_count": 0,
            "created": 1421613865000,
            "maybe_rsvp_count": 0,
            "description": "<p>Only 20 places for this event. </p> <p>Every Wednesday is Spice Time at the Oglivy in Woking! You have a choice of Curry and a drink for only £7.25 </p> <p><br/>Also a Quiz at 7:00pm!!</p> <p>If spicy food is not your thing? Your welcome to still choose something from the everyday pub menu. </p> <p>For more information on the Menu, I've attached the Website &lt;a&gt;www.theoglivy .co.uk&lt;/a&gt; </p> <p>I will reserve us a large table for 20 people. </p> <p>Please only RSVP if your 99% Positive you can attend this mid week event. </p> <p>I will email everyone attending closer the time of the event. </p> <p>Put the 4th March in your diary, and do not double book yourself!!! </p> <p>Only 20 places going on the table. </p> <p>See you at 6:30pm to order food - 7:00pm quiz time!! </p> <p>David </p>",
            "how_to_find_us": "Meeting inside Oglivy 6:30pm. I will email out my mobile number 24hrs before event to everyone attending.",
            "event_url": "http://www.meetup.com/Surrey20s-30s/events/219919187/",
            "yes_rsvp_count": 19,
            "duration": 10800000,
            "name": "Spice Night & Quiz @ The Oglivy!",
            "id": "219919187",
            "time": 1425493800000,
            "updated": 1425060713000,
            "group": {
                "join_mode": "approval",
                "created": 1329397145000,
                "name": "SURREY 20s & 30s",
                "group_lon": -0.550000011920929,
                "id": 3304772,
                "urlname": "Surrey20s-30s",
                "group_lat": 51.25,
                "who": "Members"
            },
            "status": "upcoming"
        },
        {
            "utc_offset": 0,
            "venue": {
                "country": "gb",
                "city": "Camberley",
                "address_1": "The Atrium",
                "name": "Creams ",
                "lon": -0.748835,
                "id": 22505812,
                "lat": 51.337215,
                "repinned": false
            },
            "headcount": 0,
            "distance": 13.837875366210938,
            "visibility": "public",
            "waitlist_count": 0,
            "created": 1425215512000,
            "maybe_rsvp_count": 0,
            "description": "<p>Dessert and a gossip...???</p>",
            "event_url": "http://www.meetup.com/Girls-in-the-burbs-Camberley-area/events/220839645/",
            "yes_rsvp_count": 8,
            "name": "Dessert and a chat",
            "id": "220839645",
            "time": 1425495600000,
            "updated": 1425414220000,
            "group": {
                "join_mode": "open",
                "created": 1368468814000,
                "name": "Girls in the 'burbs (Camberley and surrounding are",
                "group_lon": -0.7400000095367432,
                "id": 8468852,
                "urlname": "Girls-in-the-burbs-Camberley-area",
                "group_lat": 51.31999969482422,
                "who": "'Burber bunnies"
            },
            "status": "upcoming"
        },
        {
            "utc_offset": 0,
            "venue": {
                "country": "gb",
                "city": "Oxford",
                "address_1": "24 Friars Entry Oxford OX1 2DB",
                "name": "Oxford Organic Deli Cafe",
                "lon": -1.260385,
                "id": 17978592,
                "lat": 51.754501,
                "repinned": false
            },
            "headcount": 0,
            "distance": 23.401596069335938,
            "visibility": "public",
            "waitlist_count": 0,
            "created": 1391700908000,
            "maybe_rsvp_count": 0,
            "description": "<p>An Improv workshop. A fun and friendly place to learn how to think, speak and act spontaneously. You don't need any experience in acting, comedy or anything else to come to our sessions..</p> <p>Sessions are £5 (£3 for students).</p> <p>My number is[masked] if you need to call me.</p>",
            "event_url": "http://www.meetup.com/Improv-workshops-with-Oxford-Comedy-Deathmatch/events/220768092/",
            "yes_rsvp_count": 7,
            "name": "Improvised Comedy Workshop",
            "id": "dvbrthytfbgb",
            "time": 1425495600000,
            "updated": 1408476842000,
            "group": {
                "join_mode": "open",
                "created": 1391253863000,
                "name": "Improv workshops with Oxford Comedy Deathmatch",
                "group_lon": -1.2599999904632568,
                "id": 12659812,
                "urlname": "Improv-workshops-with-Oxford-Comedy-Deathmatch",
                "group_lat": 51.75,
                "who": "Improvisers"
            },
            "status": "upcoming"
        }
    ],
    "meta": {
        "next": "https://api.meetup.com/2/open_events?and_text=False&offset=1&sign=True&format=json&lon=-1.0073433&limited_events=False&photo-host=public&page=20&radius=25.0&lat=51.4552534&key=243f7745505b6e6d4c1b472860346554&desc=False&status=upcoming",
        "method": "OpenEvents",
        "total_count": 775,
        "link": "https://api.meetup.com/2/open_events",
        "count": 19,
        "description": "Searches for recent and upcoming public events hosted by Meetup groups. Its search window  is the past one month through the next three months, and is subject to change. Open Events is optimized to search for current events by location, category, topic, or text, and only lists Meetups that have **3 or more RSVPs**. The number or results returned with each request is not guaranteed to be the same as the page size due to secondary filtering. If you're looking for a particular event or events within a particular group, use the standard [Events](/meetup_api/docs/2/events/) method.",
        "lon": -1.0073433,
        "title": "Meetup Open Events v2",
        "url": "https://api.meetup.com/2/open_events?and_text=False&offset=0&sign=True&format=json&lon=-1.0073433&limited_events=False&photo-host=public&page=20&radius=25.0&lat=51.4552534&key=243f7745505b6e6d4c1b472860346554&desc=False&status=upcoming",
        "signed_url": "https://api.meetup.com/2/open_events?and_text=False&offset=0&format=json&lon=-1.0073433&limited_events=False&photo-host=public&page=20&radius=25.0&lat=51.4552534&desc=False&status=upcoming&sig_id=29740122&sig=02a39f52196bafee26bcc782a556f0b75a2aea13",
        "id": "",
        "updated": 1425481248214,
        "lat": 51.4552534
    }
}